Timestamp,X,Y,Z
"24-Apr-2023 12:17:13.864",-4.867728,-8.124056,2.521507
"24-Apr-2023 12:17:13.964",-4.817133,-8.160879,2.434537
"24-Apr-2023 12:17:14.065",-4.708309,-8.111183,2.480043
"24-Apr-2023 12:17:14.165",-4.572092,-8.186027,2.405797
"24-Apr-2023 12:17:14.266",-4.183051,-8.204738,2.56791
"24-Apr-2023 12:17:14.366",-5.356761,-7.748487,1.994902
"24-Apr-2023 12:17:14.467",-4.477788,-8.334967,2.700235
"24-Apr-2023 12:17:14.568",-5.511539,-7.569609,1.992357
"24-Apr-2023 12:17:14.667",-4.998555,-7.918683,1.61559
"24-Apr-2023 12:17:14.769",-4.994364,-7.791897,1.366209
"24-Apr-2023 12:17:14.869",-5.213508,-8.131989,1.545835
"24-Apr-2023 12:17:14.970",-5.945935,-8.665929,2.076183
"24-Apr-2023 12:17:15.071",-5.800887,-9.065149,1.397494
"24-Apr-2023 12:17:15.171",-2.639012,-9.268875,-1.11563
"24-Apr-2023 12:17:15.272",-4.945266,-9.416169,-0.047302
"24-Apr-2023 12:17:15.372",-3.667673,-7.219786,0.263452
"24-Apr-2023 12:17:15.473",-3.940406,-7.747289,1.126857
"24-Apr-2023 12:17:15.574",-4.77986,-8.524024,1.47144
"24-Apr-2023 12:17:15.674",-4.581822,-9.480984,2.6688
"24-Apr-2023 12:17:15.775",-5.318141,-13.700859,0.710722
"24-Apr-2023 12:17:15.875",-3.265609,-8.438402,-0.227677
"24-Apr-2023 12:17:15.976",-4.086951,-7.562274,0.052541
"24-Apr-2023 12:17:16.077",-4.146976,-8.091723,-0.002844
"24-Apr-2023 12:17:16.177",-4.547992,-7.360344,1.287173
"24-Apr-2023 12:17:16.278",-5.45301,-8.701256,0.021405
"24-Apr-2023 12:17:16.378",-4.668941,-9.067843,2.691553
"24-Apr-2023 12:17:16.479",-4.331543,-8.888816,-0.960702
"24-Apr-2023 12:17:16.580",-5.66003,-8.908575,-0.427661
"24-Apr-2023 12:17:16.680",-3.891757,-8.017029,0.803529
"24-Apr-2023 12:17:16.781",-3.95283,-8.400531,1.081351
"24-Apr-2023 12:17:16.881",-4.478836,-8.009993,1.050815
"24-Apr-2023 12:17:16.982",-4.158802,-9.33863,1.522933
"24-Apr-2023 12:17:17.083",-4.33768,-9.676328,2.292483
"24-Apr-2023 12:17:17.183",-4.759203,-6.941964,-1.171913
"24-Apr-2023 12:17:17.284",-3.841162,-11.309432,-0.335901
"24-Apr-2023 12:17:17.384",-3.947591,-7.971224,-0.55295
"24-Apr-2023 12:17:17.485",-4.837939,-8.356672,-0.611179
"24-Apr-2023 12:17:17.586",-3.990402,-7.445517,-0.294438
"24-Apr-2023 12:17:17.686",-5.39568,-8.982072,-0.310604
"24-Apr-2023 12:17:17.787",-5.096152,-8.815768,1.826502
"24-Apr-2023 12:17:17.887",-5.615722,-8.703351,-0.167352
"24-Apr-2023 12:17:17.988",-1.397494,-8.681497,0.430654
"24-Apr-2023 12:17:18.088",-4.494254,-8.450527,-0.688718
"24-Apr-2023 12:17:18.189",-4.372408,-8.465496,0.037722
"24-Apr-2023 12:17:18.290",-4.285438,-8.771759,0.372725
"24-Apr-2023 12:17:18.390",-4.457131,-8.084388,0.640069
"24-Apr-2023 12:17:18.491",-4.644093,-8.595875,0.595162
"24-Apr-2023 12:17:18.591",-5.396578,-8.576565,1.439107
"24-Apr-2023 12:17:18.692",-3.898942,-9.789193,1.242566
"24-Apr-2023 12:17:18.793",-4.139043,-5.744155,-0.582738
"24-Apr-2023 12:17:18.893",-5.422923,-10.594818,-0.330662
"24-Apr-2023 12:17:18.994",-3.063529,-8.099208,1.007405
"24-Apr-2023 12:17:19.094",-4.590504,-8.137977,0.107776
"24-Apr-2023 12:17:19.195",-4.816833,-8.270452,0.872536
"24-Apr-2023 12:17:19.296",-4.595593,-8.17495,0.292192
"24-Apr-2023 12:17:19.396",-4.883295,-9.845476,1.779649
"24-Apr-2023 12:17:19.497",-4.814887,-9.663604,-2.120191
"24-Apr-2023 12:17:19.597",-5.458549,-8.147108,-1.606759
"24-Apr-2023 12:17:19.698",-2.622846,-8.573421,-0.282313
"24-Apr-2023 12:17:19.799",-4.055666,-8.648116,-0.545915
"24-Apr-2023 12:17:19.899",-3.49613,-8.701555,-0.585882
"24-Apr-2023 12:17:20.000",-2.834057,-8.968001,-0.333806
"24-Apr-2023 12:17:20.100",-2.251767,-9.133407,-0.478405
"24-Apr-2023 12:17:20.201",-1.396745,-8.990005,-2.204017
"24-Apr-2023 12:17:20.302",-3.594924,-7.763007,-2.58692
"24-Apr-2023 12:17:20.402",-2.528841,-8.002808,-2.23126
"24-Apr-2023 12:17:20.503",-1.767524,-7.555538,-2.500101
"24-Apr-2023 12:17:20.603",-1.854344,-6.745573,-3.244204
"24-Apr-2023 12:17:20.704",-1.613495,-9.524843,-3.663332
"24-Apr-2023 12:17:20.805",-1.434317,-7.869286,-4.752168
"24-Apr-2023 12:17:20.905",-0.657433,-8.153096,-4.991969
"24-Apr-2023 12:17:21.006",0.202828,-8.668923,-5.824089
"24-Apr-2023 12:17:21.106",0.030387,-10.126143,-5.5783
"24-Apr-2023 12:17:21.207",0.841251,-7.598948,-5.144203
"24-Apr-2023 12:17:21.307",-0.180076,-10.530302,-4.353996
"24-Apr-2023 12:17:21.408",-1.094075,-9.461225,-3.582201
"24-Apr-2023 12:17:21.509",-1.059197,-10.117161,-3.387905
"24-Apr-2023 12:17:21.609",-1.960323,-11.107801,-2.880759
"24-Apr-2023 12:17:21.710",-2.573748,-9.636211,-2.973417
"24-Apr-2023 12:17:21.810",-2.189497,-8.421487,-2.8131
"24-Apr-2023 12:17:21.911",-2.175726,-8.753946,-3.429668
"24-Apr-2023 12:17:22.012",-2.091002,-8.315957,-4.14518
"24-Apr-2023 12:17:22.112",-1.57233,-8.425828,-4.051026
"24-Apr-2023 12:17:22.213",-1.708547,-8.754096,-4.903503
"24-Apr-2023 12:17:22.313",-1.719774,-8.049511,-4.259393
"24-Apr-2023 12:17:22.414",-2.516567,-7.730075,-3.408113
"24-Apr-2023 12:17:22.515",-2.874473,-8.563392,-3.846701
"24-Apr-2023 12:17:22.615",-3.608396,-8.554112,-3.150948
"24-Apr-2023 12:17:22.716",-4.563859,-8.973689,-2.0919
"24-Apr-2023 12:17:22.816",-5.492528,-7.957602,-1.136437
"24-Apr-2023 12:17:22.917",-6.073919,-8.448282,-0.40865
"24-Apr-2023 12:17:23.018",-6.478528,-9.113947,0.267943
"24-Apr-2023 12:17:23.118",-6.223309,-7.661069,0.563129
"24-Apr-2023 12:17:23.219",-6.926247,-7.398215,0.814007
"24-Apr-2023 12:17:23.319",-6.752907,-7.353458,0.914748
"24-Apr-2023 12:17:23.420",-6.798562,-7.573651,1.623823
"24-Apr-2023 12:17:23.521",-7.459588,-6.536158,1.079106
"24-Apr-2023 12:17:23.621",-6.301895,-7.181017,0.304317
"24-Apr-2023 12:17:23.722",-6.978788,-7.466623,0.422272
"24-Apr-2023 12:17:23.822",-6.869515,-7.388336,0.624202
"24-Apr-2023 12:17:23.923",-6.85245,-7.261849,1.139431
"24-Apr-2023 12:17:24.024",-6.512657,-7.180269,1.234034
"24-Apr-2023 12:17:24.124",-6.42943,-7.279063,0.905467
"24-Apr-2023 12:17:24.225",-6.725963,-7.017258,0.675994
"24-Apr-2023 12:17:24.325",-6.441255,-7.389833,0.939895
"24-Apr-2023 12:17:24.426",-6.705007,-7.111412,1.209036
"24-Apr-2023 12:17:24.526",-6.454578,-7.08357,1.878144
"24-Apr-2023 12:17:24.627",-6.340515,-6.94376,1.994602
"24-Apr-2023 12:17:24.728",-6.326594,-5.926476,2.156715
"24-Apr-2023 12:17:24.828",-6.317762,-7.132668,2.388284
"24-Apr-2023 12:17:24.929",-5.969137,-6.763535,2.965932
"24-Apr-2023 12:17:25.029",-5.994285,-6.635402,4.133654
"24-Apr-2023 12:17:25.130",-5.547614,-6.875053,4.119284
"24-Apr-2023 12:17:25.231",-5.368736,-6.2754,4.048481
"24-Apr-2023 12:17:25.331",-5.40047,-6.750063,3.918252
"24-Apr-2023 12:17:25.432",-5.718708,-6.850355,3.828289
"24-Apr-2023 12:17:25.532",-5.668113,-6.858288,4.079766
"24-Apr-2023 12:17:25.633",-5.445227,-6.862479,3.993396
"24-Apr-2023 12:17:25.734",-5.513335,-7.03058,3.922892
"24-Apr-2023 12:17:25.834",-5.798791,-7.048692,3.741619
"24-Apr-2023 12:17:25.935",-5.800588,-6.894213,4.019442
"24-Apr-2023 12:17:26.035",-5.854625,-6.962621,3.783682
"24-Apr-2023 12:17:26.136",-5.716912,-6.994804,3.739673
"24-Apr-2023 12:17:26.237",-5.742658,-6.990014,3.470234
"24-Apr-2023 12:17:26.337",-5.858367,-7.012318,3.498525
"24-Apr-2023 12:17:26.438",-5.71766,-7.11725,3.463198
"24-Apr-2023 12:17:26.538",-5.721702,-7.079977,3.596571
"24-Apr-2023 12:17:26.639",-5.933062,-7.161857,3.307372
"24-Apr-2023 12:17:26.740",-5.740712,-7.057673,3.161875
"24-Apr-2023 12:17:26.840",-5.83771,-7.096293,3.326383
"24-Apr-2023 12:17:26.941",-5.879773,-7.043603,3.474425
"24-Apr-2023 12:17:27.041",-5.779631,-7.013066,3.538192
"24-Apr-2023 12:17:27.142",-5.810018,-6.990763,3.540587
"24-Apr-2023 12:17:27.243",-5.781128,-7.061565,3.588637
"24-Apr-2023 12:17:27.343",-5.811964,-7.005881,3.730542
"24-Apr-2023 12:17:27.444",-5.651198,-6.971004,3.708239
"24-Apr-2023 12:17:27.544",-5.725893,-6.938372,3.847749
"24-Apr-2023 12:17:27.645",-5.78008,-6.923253,3.779191
"24-Apr-2023 12:17:27.745",-5.75119,-6.948999,3.793262
"24-Apr-2023 12:17:27.846",-5.738317,-6.95349,3.7991
"24-Apr-2023 12:17:27.947",-5.681136,-6.955735,3.792962
"24-Apr-2023 12:17:28.047",-5.747897,-6.969207,3.825445
"24-Apr-2023 12:17:28.148",-5.667664,-6.926995,3.83757
"24-Apr-2023 12:17:28.248",-5.687573,-6.957681,3.850742
"24-Apr-2023 12:17:28.349",-5.672753,-6.96786,3.799998
"24-Apr-2023 12:17:28.450",-5.730234,-6.965465,3.800746
"24-Apr-2023 12:17:28.550",-5.731132,-6.983129,3.902834
"24-Apr-2023 12:17:28.651",-5.744305,-7.050488,3.915558
"24-Apr-2023 12:17:28.751",-5.867648,-6.931336,3.689228
"24-Apr-2023 12:17:28.852",-5.734874,-6.932234,3.754942
"24-Apr-2023 12:17:28.953",-5.757926,-6.971153,3.679798
"24-Apr-2023 12:17:29.053",-5.830226,-6.971303,3.638184
"24-Apr-2023 12:17:29.154",-5.825436,-6.975794,3.579506
"24-Apr-2023 12:17:29.254",-5.810168,-7.113208,3.674259
"24-Apr-2023 12:17:29.355",-5.89579,-7.04989,3.398084
"24-Apr-2023 12:17:29.456",-5.897736,-7.059919,3.420986
"24-Apr-2023 12:17:29.556",-5.848189,-7.013815,3.459157
"24-Apr-2023 12:17:29.657",-5.87648,-7.010671,3.410208
"24-Apr-2023 12:17:29.757",-5.888305,-7.010522,3.435206
"24-Apr-2023 12:17:29.857",-5.851931,-7.020401,3.490741
"24-Apr-2023 12:17:29.959",-5.890251,-6.958729,3.418741
"24-Apr-2023 12:17:30.059",-5.91989,-7.023694,3.392994
"24-Apr-2023 12:17:30.160",-5.860463,-6.991361,3.41904
"24-Apr-2023 12:17:30.260",-5.88127,-6.985374,3.509153
"24-Apr-2023 12:17:30.361",-5.899232,-6.984925,3.515739
"24-Apr-2023 12:17:30.461",-5.821843,-6.918613,3.52472
"24-Apr-2023 12:17:30.562",-5.903873,-6.930737,3.543431
"24-Apr-2023 12:17:30.663",-5.947283,-6.961274,3.650309
"24-Apr-2023 12:17:30.763",-5.879174,-6.954239,3.671715
"24-Apr-2023 12:17:30.864",-5.759723,-6.960376,3.763624
"24-Apr-2023 12:17:30.964",-5.831873,-6.928642,3.734584
"24-Apr-2023 12:17:31.065",-5.749993,-6.893315,3.738176
"24-Apr-2023 12:17:31.166",-5.752687,-6.910679,3.867208
"24-Apr-2023 12:17:31.266",-5.730234,-7.007977,3.830834
"24-Apr-2023 12:17:31.367",-5.791457,-6.87176,3.799848
"24-Apr-2023 12:17:31.467",-5.759573,-6.949898,3.798501
"24-Apr-2023 12:17:31.568",-5.779482,-6.844517,3.830684
"24-Apr-2023 12:17:31.669",-5.757028,-6.898405,3.889512
"24-Apr-2023 12:17:31.769",-5.754034,-6.856791,3.860173
"24-Apr-2023 12:17:31.870",-5.795049,-6.875652,3.880979
"24-Apr-2023 12:17:31.970",-5.757028,-6.883286,3.917953
"24-Apr-2023 12:17:32.071",-5.76601,-6.868617,3.863765
"24-Apr-2023 12:17:32.172",-5.784421,-6.841822,3.895649
"24-Apr-2023 12:17:32.272",-5.768854,-6.88149,3.822301
"24-Apr-2023 12:17:32.373",-5.6985,-6.899602,3.907923
"24-Apr-2023 12:17:32.473",-5.776488,-6.913823,3.780389
"24-Apr-2023 12:17:32.574",-5.879324,-6.87176,3.769461
"24-Apr-2023 12:17:32.675",-5.78966,-6.963968,3.78922
"24-Apr-2023 12:17:32.775",-5.7946,-6.959478,3.693569
"24-Apr-2023 12:17:32.876",-5.79954,-6.935228,3.521128
"24-Apr-2023 12:17:32.976",-6.082601,-6.922505,3.578758
"24-Apr-2023 12:17:33.077",-5.870043,-6.917565,3.722758
"24-Apr-2023 12:17:33.178",-5.869295,-7.008276,3.573818
"24-Apr-2023 12:17:33.278",-5.964796,-6.89122,3.545677
"24-Apr-2023 12:17:33.379",-5.906418,-6.933282,3.538641
"24-Apr-2023 12:17:33.479",-5.979915,-6.921606,3.594775
"24-Apr-2023 12:17:33.580",-5.903124,-6.885531,3.557652
"24-Apr-2023 12:17:33.681",-5.984854,-6.907685,3.648663
"24-Apr-2023 12:17:33.781",-5.767955,-6.866222,3.644771
"24-Apr-2023 12:17:33.882",-5.932164,-6.878197,3.723507
"24-Apr-2023 12:17:33.982",-5.882916,-6.813082,3.697012
"24-Apr-2023 12:17:34.083",-5.836064,-6.921008,3.68369
"24-Apr-2023 12:17:34.183",-5.873037,-6.873257,3.714077
"24-Apr-2023 12:17:34.284",-5.917345,-6.902895,3.701952
"24-Apr-2023 12:17:34.385",-5.886958,-6.827602,3.732189
"24-Apr-2023 12:17:34.485",-5.835615,-6.812034,3.805836
"24-Apr-2023 12:17:34.586",-5.814958,-6.877299,3.792813
"24-Apr-2023 12:17:34.686",-5.864205,-6.846762,3.851042
"24-Apr-2023 12:17:34.787",-5.851931,-6.866072,3.836672
"24-Apr-2023 12:17:34.888",-5.853428,-6.814579,3.849395
"24-Apr-2023 12:17:34.988",-5.809719,-6.790928,3.835324
"24-Apr-2023 12:17:35.089",-5.838159,-6.82386,3.802543
"24-Apr-2023 12:17:35.189",-5.90986,-6.824908,3.841462
